…
    # lon lat plot coloured by argos location class
    p3 <- ggplot() +
      geom_point(aes(x = lon, y = lat, colour = lc), data = locs) +
      scale_color_viridis_d() +
      facet_wrap(~id, nrow = 3)
    print(p3)

    # how long do the tags last?
    locs %>% 
      group_by(id) %>% 
      summarise(max(date) - min(date)) 

#### Answer

    ## # A tibble: 21,502 x 8
    ##    id         date                lc      lon   lat  smaj  smin   eor
    ##    <chr>      <dttm>              <chr> <dbl> <dbl> <dbl> <dbl> <dbl>
    ##  1 hp6-747-19 2019-03-23 00:08:33 3     -59.6  48.1   269    93    97
    ##  2 hp6-747-19 2019-03-23 00:25:33 3     -59.6  48.1   338    75    69
    ##  3 hp6-747-19 2019-03-23 00:37:38 1     -59.6  48.1  4984   144    83
    ##  4 hp6-747-19 2019-03-23 10:20:14 3     -59.7  48.2   358    89   116
    ##  5 hp6-747-19 2019-03-23 10:22:18 3     -59.7  48.2   239    82    96
    ##  6 hp6-747-19 2019-03-23 15:07:47 2     -59.7  48.2  1345    76   132
    ##  7 hp6-747-19 2019-03-23 15:36:07 3     -59.7  48.2   665    48    90
    ##  8 hp6-747-19 2019-03-23 20:03:42 B     -59.7  48.2  4369   528    42
    ##  9 hp6-747-19 2019-03-23 20:13:27 2     -59.7  48.3  1890    72    84
    ## 10 hp6-747-19 2019-03-24 01:25:02 3     -59.7  48.3   271    70    82
    ## # … with 21,492 more rows
…
    # Extract fitted values from model
    plocs <- grab(fit, "predicted", as_sf = F)

    # combine regularised locations with dive data
    dat <- left_join(plocs, dives, by = c("id" = "id", "date" = "date"))
    print(dat)

#### Answer

    ## 
    ## pre-filtering data...
    ## 
    ## fitting SSM...

    ## # A tibble: 5,862 x 18
    ##    id    date                  lon   lat      x     y  x.se  y.se surface_time
    ##    <chr> <dttm>              <dbl> <dbl>  <dbl> <dbl> <dbl> <dbl>        <dbl>
    ##  1 hp6-… 2019-03-23 00:00:00 -59.6  48.1 -6634. 6088.  1.10  1.44          0  
    ##  2 hp6-… 2019-03-23 06:00:00 -59.6  48.1 -6639. 6100. 25.6  30.2          18.9
    ##  3 hp6-… 2019-03-23 12:00:00 -59.7  48.2 -6643. 6107. 11.0  12.9           0  
    ##  4 hp6-… 2019-03-23 18:00:00 -59.7  48.2 -6643. 6116. 11.9  14.0           0  
    ##  5 hp6-… 2019-03-24 00:00:00 -59.7  48.3 -6642. 6123. 10.1  11.9           0  
    ##  6 hp6-… 2019-03-24 06:00:00 -59.6  48.3 -6637. 6122. 27.1  31.8           0  
    ##  7 hp6-… 2019-03-24 12:00:00 -59.6  48.3 -6631. 6119.  8.34  3.89          0  
    ##  8 hp6-… 2019-03-24 18:00:00 -59.6  48.3 -6632. 6118. 21.5  25.2          13.4
    ##  9 hp6-… 2019-03-25 00:00:00 -59.5  48.2 -6629. 6115. 12.9  15.2           0  
    ## 10 hp6-… 2019-03-25 06:00:00 -59.5  48.2 -6627. 6112. 24.6  29.0          NA  
    ## # … with 5,852 more rows, and 9 more variables: dive_time <dbl>,
    ## #   haul_time <dbl>, n_dives <dbl>, av_depth <dbl>, max_depth <dbl>,
    ## #   sd_depth <lgl>, av_duration <dbl>, sd_duration <dbl>, max_duration <dbl>
…
    ## # A tibble: 5,862 x 19
    ##    id    date                  lon   lat      x     y  x.se  y.se surface_time
    ##    <chr> <dttm>              <dbl> <dbl>  <dbl> <dbl> <dbl> <dbl>        <dbl>
    ##  1 hp6-… 2019-03-23 00:00:00 -59.6  48.1 -6634. 6088.  1.10  1.44          0  
    ##  2 hp6-… 2019-03-23 06:00:00 -59.6  48.1 -6639. 6100. 25.6  30.2          18.9
    ##  3 hp6-… 2019-03-23 12:00:00 -59.7  48.2 -6643. 6107. 11.0  12.9           0  
    ##  4 hp6-… 2019-03-23 18:00:00 -59.7  48.2 -6643. 6116. 11.9  14.0           0  
    ##  5 hp6-… 2019-03-24 00:00:00 -59.7  48.3 -6642. 6123. 10.1  11.9           0  
    ##  6 hp6-… 2019-03-24 06:00:00 -59.6  48.3 -6637. 6122. 27.1  31.8           0  
    ##  7 hp6-… 2019-03-24 12:00:00 -59.6  48.3 -6631. 6119.  8.34  3.89          0  
    ##  8 hp6-… 2019-03-24 18:00:00 -59.6  48.3 -6632. 6118. 21.5  25.2          13.4
    ##  9 hp6-… 2019-03-25 00:00:00 -59.5  48.2 -6629. 6115. 12.9  15.2           0  
    ## 10 hp6-… 2019-03-25 06:00:00 -59.5  48.2 -6627. 6112. 24.6  29.0          NA  
    ## # … with 5,852 more rows, and 10 more variables: dive_time <dbl>,
    ## #   haul_time <dbl>, n_dives <dbl>, av_depth <dbl>, max_depth <dbl>,
    ## #   sd_depth <lgl>, av_duration <dbl>, sd_duration <dbl>, max_duration <dbl>,
    ## #   bathy <dbl>
…
